-- Merging decision tree log ---
manifest
ADDED from D:\AndroidProjects\RadioSeti\app\src\main\AndroidManifest.xml:2:1-64:12
	package
		ADDED from D:\AndroidProjects\RadioSeti\app\src\main\AndroidManifest.xml:3:5-36
		INJECTED from D:\AndroidProjects\RadioSeti\app\src\main\AndroidManifest.xml
		INJECTED from D:\AndroidProjects\RadioSeti\app\src\main\AndroidManifest.xml
	android:versionName
		ADDED from D:\AndroidProjects\RadioSeti\app\src\main\AndroidManifest.xml:5:5-30
		INJECTED from D:\AndroidProjects\RadioSeti\app\src\main\AndroidManifest.xml
		INJECTED from D:\AndroidProjects\RadioSeti\app\src\main\AndroidManifest.xml
	android:versionCode
		ADDED from D:\AndroidProjects\RadioSeti\app\src\main\AndroidManifest.xml:4:5-28
		INJECTED from D:\AndroidProjects\RadioSeti\app\src\main\AndroidManifest.xml
		INJECTED from D:\AndroidProjects\RadioSeti\app\src\main\AndroidManifest.xml
	xmlns:android
		ADDED from D:\AndroidProjects\RadioSeti\app\src\main\AndroidManifest.xml:2:11-69
uses-sdk
ADDED from D:\AndroidProjects\RadioSeti\app\src\main\AndroidManifest.xml:7:5-9:41
MERGED from [com.android.support:appcompat-v7:23.1.1] D:\AndroidProjects\RadioSeti\app\build\intermediates\exploded-aar\com.android.support\appcompat-v7\23.1.1\AndroidManifest.xml:20:5-43
MERGED from [com.android.support:support-v4:23.1.1] D:\AndroidProjects\RadioSeti\app\build\intermediates\exploded-aar\com.android.support\support-v4\23.1.1\AndroidManifest.xml:20:5-43
	android:targetSdkVersion
		ADDED from D:\AndroidProjects\RadioSeti\app\src\main\AndroidManifest.xml:9:9-38
		INJECTED from D:\AndroidProjects\RadioSeti\app\src\main\AndroidManifest.xml
		INJECTED from D:\AndroidProjects\RadioSeti\app\src\main\AndroidManifest.xml
	android:minSdkVersion
		ADDED from D:\AndroidProjects\RadioSeti\app\src\main\AndroidManifest.xml:8:9-34
		INJECTED from D:\AndroidProjects\RadioSeti\app\src\main\AndroidManifest.xml
		INJECTED from D:\AndroidProjects\RadioSeti\app\src\main\AndroidManifest.xml
uses-permission#android.permission.INTERNET
ADDED from D:\AndroidProjects\RadioSeti\app\src\main\AndroidManifest.xml:11:5-67
	android:name
		ADDED from D:\AndroidProjects\RadioSeti\app\src\main\AndroidManifest.xml:11:22-64
uses-permission#android.permission.ACCESS_WIFI_STATE
ADDED from D:\AndroidProjects\RadioSeti\app\src\main\AndroidManifest.xml:12:5-76
	android:name
		ADDED from D:\AndroidProjects\RadioSeti\app\src\main\AndroidManifest.xml:12:22-73
uses-permission#android.permission.ACCESS_NETWORK_STATE
ADDED from D:\AndroidProjects\RadioSeti\app\src\main\AndroidManifest.xml:13:5-79
	android:name
		ADDED from D:\AndroidProjects\RadioSeti\app\src\main\AndroidManifest.xml:13:22-76
uses-permission#android.permission.CHANGE_WIFI_STATE
ADDED from D:\AndroidProjects\RadioSeti\app\src\main\AndroidManifest.xml:14:5-76
	android:name
		ADDED from D:\AndroidProjects\RadioSeti\app\src\main\AndroidManifest.xml:14:22-73
uses-permission#android.permission.READ_PHONE_STATE
ADDED from D:\AndroidProjects\RadioSeti\app\src\main\AndroidManifest.xml:15:5-75
	android:name
		ADDED from D:\AndroidProjects\RadioSeti\app\src\main\AndroidManifest.xml:15:22-72
uses-permission#android.permission.VIBRATE
ADDED from D:\AndroidProjects\RadioSeti\app\src\main\AndroidManifest.xml:16:5-66
	android:name
		ADDED from D:\AndroidProjects\RadioSeti\app\src\main\AndroidManifest.xml:16:22-63
application
ADDED from D:\AndroidProjects\RadioSeti\app\src\main\AndroidManifest.xml:18:5-62:19
MERGED from [com.android.support:appcompat-v7:23.1.1] D:\AndroidProjects\RadioSeti\app\build\intermediates\exploded-aar\com.android.support\appcompat-v7\23.1.1\AndroidManifest.xml:22:5-20
MERGED from [com.android.support:support-v4:23.1.1] D:\AndroidProjects\RadioSeti\app\build\intermediates\exploded-aar\com.android.support\support-v4\23.1.1\AndroidManifest.xml:22:5-20
	android:label
		ADDED from D:\AndroidProjects\RadioSeti\app\src\main\AndroidManifest.xml:21:9-41
	android:allowBackup
		ADDED from D:\AndroidProjects\RadioSeti\app\src\main\AndroidManifest.xml:19:9-35
	android:icon
		ADDED from D:\AndroidProjects\RadioSeti\app\src\main\AndroidManifest.xml:20:9-45
	android:theme
		ADDED from D:\AndroidProjects\RadioSeti\app\src\main\AndroidManifest.xml:22:9-40
activity#com.softnep.radioseti.MainActivity
ADDED from D:\AndroidProjects\RadioSeti\app\src\main\AndroidManifest.xml:23:9-32:20
	android:screenOrientation
		ADDED from D:\AndroidProjects\RadioSeti\app\src\main\AndroidManifest.xml:29:13-49
	android:label
		ADDED from D:\AndroidProjects\RadioSeti\app\src\main\AndroidManifest.xml:27:13-45
	android:excludeFromRecents
		ADDED from D:\AndroidProjects\RadioSeti\app\src\main\AndroidManifest.xml:25:13-46
	android:launchMode
		ADDED from D:\AndroidProjects\RadioSeti\app\src\main\AndroidManifest.xml:26:13-43
	android:theme
		ADDED from D:\AndroidProjects\RadioSeti\app\src\main\AndroidManifest.xml:28:13-53
	android:name
		ADDED from D:\AndroidProjects\RadioSeti\app\src\main\AndroidManifest.xml:24:13-41
activity#com.softnep.radioseti.SplashActivity
ADDED from D:\AndroidProjects\RadioSeti\app\src\main\AndroidManifest.xml:33:9-43:20
	android:screenOrientation
		ADDED from D:\AndroidProjects\RadioSeti\app\src\main\AndroidManifest.xml:35:13-49
	android:launchMode
		ADDED from D:\AndroidProjects\RadioSeti\app\src\main\AndroidManifest.xml:36:13-43
	android:theme
		ADDED from D:\AndroidProjects\RadioSeti\app\src\main\AndroidManifest.xml:37:13-53
	android:name
		ADDED from D:\AndroidProjects\RadioSeti\app\src\main\AndroidManifest.xml:34:13-43
intent-filter#android.intent.action.MAIN+android.intent.category.LAUNCHER
ADDED from D:\AndroidProjects\RadioSeti\app\src\main\AndroidManifest.xml:38:13-42:29
action#android.intent.action.MAIN
ADDED from D:\AndroidProjects\RadioSeti\app\src\main\AndroidManifest.xml:39:17-69
	android:name
		ADDED from D:\AndroidProjects\RadioSeti\app\src\main\AndroidManifest.xml:39:25-66
category#android.intent.category.LAUNCHER
ADDED from D:\AndroidProjects\RadioSeti\app\src\main\AndroidManifest.xml:41:17-77
	android:name
		ADDED from D:\AndroidProjects\RadioSeti\app\src\main\AndroidManifest.xml:41:27-74
receiver#com.softnep.radioseti.NotificationActionButtonReceiver
ADDED from D:\AndroidProjects\RadioSeti\app\src\main\AndroidManifest.xml:45:9-53:20
	android:exported
		ADDED from D:\AndroidProjects\RadioSeti\app\src\main\AndroidManifest.xml:47:13-37
	android:name
		ADDED from D:\AndroidProjects\RadioSeti\app\src\main\AndroidManifest.xml:46:13-61
intent-filter#com.softnep.radioseti.ACTION_CLOSE+com.softnep.radioseti.ACTION_PAUSE+com.softnep.radioseti.ACTION_PLAY
ADDED from D:\AndroidProjects\RadioSeti\app\src\main\AndroidManifest.xml:48:13-52:29
action#com.softnep.radioseti.ACTION_CLOSE
ADDED from D:\AndroidProjects\RadioSeti\app\src\main\AndroidManifest.xml:49:17-77
	android:name
		ADDED from D:\AndroidProjects\RadioSeti\app\src\main\AndroidManifest.xml:49:25-74
action#com.softnep.radioseti.ACTION_PLAY
ADDED from D:\AndroidProjects\RadioSeti\app\src\main\AndroidManifest.xml:50:17-76
	android:name
		ADDED from D:\AndroidProjects\RadioSeti\app\src\main\AndroidManifest.xml:50:25-73
action#com.softnep.radioseti.ACTION_PAUSE
ADDED from D:\AndroidProjects\RadioSeti\app\src\main\AndroidManifest.xml:51:17-77
	android:name
		ADDED from D:\AndroidProjects\RadioSeti\app\src\main\AndroidManifest.xml:51:25-74
receiver#com.softnep.radioseti.MusicIntentReceiver
ADDED from D:\AndroidProjects\RadioSeti\app\src\main\AndroidManifest.xml:54:9-58:20
	android:name
		ADDED from D:\AndroidProjects\RadioSeti\app\src\main\AndroidManifest.xml:54:19-54
intent-filter#android.media.AUDIO_BECOMING_NOISY
ADDED from D:\AndroidProjects\RadioSeti\app\src\main\AndroidManifest.xml:55:13-57:29
action#android.media.AUDIO_BECOMING_NOISY
ADDED from D:\AndroidProjects\RadioSeti\app\src\main\AndroidManifest.xml:56:17-77
	android:name
		ADDED from D:\AndroidProjects\RadioSeti\app\src\main\AndroidManifest.xml:56:25-74
service#com.softnep.radioseti.KillNotificationsService
ADDED from D:\AndroidProjects\RadioSeti\app\src\main\AndroidManifest.xml:60:9-61:19
	android:name
		ADDED from D:\AndroidProjects\RadioSeti\app\src\main\AndroidManifest.xml:60:18-58
